"id","name","category","description","price","quantity","created_at"
"P0001","Mie Ayam Original","Makanan","",15000,100,"2021-11-04 12:59:20"
"P0002","Mie Ayam Bakso","","Mie Ayam Original + Bakso",20000,100,"2021-11-04 13:03:07"
"P0003","Mie Ayam Ceker","Makanan","Mie Ayam Original + Ceker",20000,100,"2021-11-04 13:06:45"
"P0004","Mie Ayam Spesial","","",25000,100,"2021-11-04 13:06:45"
"P0005","Mie Ayam Bakso","","",20000,100,"2021-11-04 13:06:45"
